<?xml version="1.0" encoding="UTF-8"?>
<session version="1.0">
<refactoring comment="Rename Java project &apos;AndroidClass-2014-12-18&apos; to &apos;JavaClass-2014-12-18_2&apos;&#x0D;&#x0A;- Original element: &apos;AndroidClass-2014-12-18&apos;&#x0D;&#x0A;- Renamed element: &apos;AndroidClass-2014-12-18&apos;&#x0D;&#x0A;- Update references to refactored element" description="Rename Java project &apos;AndroidClass-2014-12-18&apos;" flags="7" id="org.eclipse.jdt.ui.rename.java.project" input="=AndroidClass-2014-12-18" name="JavaClass-2014-12-18_2" references="true" stamp="1419795900638" version="1.0"/>
</session>