<?xml version="1.0" encoding="UTF-8"?>
<session version="1.0">
<refactoring comment="Rename package &apos;ex2&apos; to &apos;ex1&apos;&#x0D;&#x0A;- Original project: &apos;JavaHomework-2014-11-30&apos;&#x0D;&#x0A;- Original element: &apos;JavaHomework-2014-11-30/src/ex2&apos;&#x0D;&#x0A;- Renamed element: &apos;JavaHomework-2014-11-30/src/ex1&apos;&#x0D;&#x0A;- Update references to refactored element&#x0D;&#x0A;- Update textual occurrences in comments and strings" description="Rename package &apos;ex2&apos;" flags="589830" hierarchical="false" id="org.eclipse.jdt.ui.rename.package" input="/src&lt;ex2" name="ex1" qualified="false" references="true" stamp="1417344673692" textual="false" version="1.0"/>
</session>