<?xml version="1.0" encoding="UTF-8"?>
<session version="1.0">
<refactoring accessors="true" comment="Delete element from project &apos;JavaHomework-2014-11-19&apos;&#x0D;&#x0A;- Original project: &apos;JavaHomework-2014-11-19&apos;&#x0D;&#x0A;- Original element: &apos;JavaHomework-2014-11-19/src/ex12&apos;" description="Delete element" element1="/src&lt;ex12" elements="1" flags="589830" id="org.eclipse.jdt.ui.delete" resources="0" stamp="1416441806492" subPackages="false" version="1.0"/>
</session>